packages/oscura/oscura-0.8.0.tar.gz/oscura-0.8.0/demonstrations/data/demo_signals.vcd
$date
   2026-01-16
$end
$version
   Oscura Demo VCD Generator
$end
$timescale
   1ns
$end
$scope module top $end
$var wire 1 ! clk $end
$var wire 1 " rst_n $end
$var wire 8 # data [7:0] $end
$var wire 1 $ valid $end
$var wire 1 % ready $end
$upscope $end
$enddefinitions $end
#0
0!
0"
b00000000 #
0$
1%
#5
1!
#10
0!
1"
#15
1!
#20
0!
b00001010 #
1$
#25
1!
#30
0!
0$
#35
1!
#40
0!
b00101011 #
1$
#45
1!
#50
0!
0$
#55
1!
#60
0!
b11001100 #
1$
#65
1!
#70
0!
0$
#75
1!
#80
0!
b11110000 #
1$
#85
1!
#90
0!
0$
